…
**Answer:** **We can see some common combinations, e.g. blood pressure,
white/red blood cell, etc.**

------------------------------------------------------------------------

## Question 6: Words by Specialties

Which words are most used in each of the specialties? You can use
`group_by()` and `top_n()` from `dplyr` to have the calculations be done
within each specialty. Remember to remove stopwords. How about the 5
most used words?

    ## # A tibble: 150 × 3
    ## # Groups:   medical_specialty [30]
    ##    medical_specialty    word         word_frequency
    ##    <chr>                <chr>                 <int>
    ##  1 Allergy / Immunology allergies                 4
    ##  2 Allergy / Immunology allegra                   3
    ##  3 Allergy / Immunology prescription              3
    ##  4 Allergy / Immunology sprays                    3
    ##  5 Allergy / Immunology erythematous              2
    ##  6 Bariatrics           patient                  29
    ##  7 Bariatrics           history                  21
    ##  8 Bariatrics           abdomen                  20
    ##  9 Bariatrics           procedure                18
    ## 10 Bariatrics           weight                   15
    ## # ℹ 140 more rows
…
